{
	"idlinha": "5511",
	"nome": "NILO\/PRAIA DE BELAS",
	"codigo": "T7-1",
	"0": {
		"lat": "-30.00868779817800000",
		"lng": "-51.14298528234100000"
	},
	"1": {
		"lat": "-30.00898179817800000",
		"lng": "-51.14342028234100000"
	},
	"2": {
		"lat": "-30.00916779817800000",
		"lng": "-51.14377828234100000"
	},
	"3": {
		"lat": "-30.00955079817800000",
		"lng": "-51.14430628234100000"
	},
	"4": {
		"lat": "-30.00977279817800000",
		"lng": "-51.14469628234100000"
	},
	"5": {
		"lat": "-30.00984279817800000",
		"lng": "-51.14486228234100000"
	},
	"6": {
		"lat": "-30.01018179817800000",
		"lng": "-51.14561428234100000"
	},
	"7": {
		"lat": "-30.01036879817800000",
		"lng": "-51.14594928234100000"
	},
	"8": {
		"lat": "-30.01038379817800000",
		"lng": "-51.14616128234100000"
	},
	"9": {
		"lat": "-30.01039279817800000",
		"lng": "-51.14629528234100000"
	},
	"10": {
		"lat": "-30.01044779817800000",
		"lng": "-51.14709328234100000"
	},
	"11": {
		"lat": "-30.01047679817800000",
		"lng": "-51.14761128234100000"
	},
	"12": {
		"lat": "-30.01051579817800000",
		"lng": "-51.14851728234100000"
	},
	"13": {
		"lat": "-30.01050979817800000",
		"lng": "-51.14906128234100000"
	},
	"14": {
		"lat": "-30.01048679817800000",
		"lng": "-51.15005728234100000"
	},
	"15": {
		"lat": "-30.01047779817800000",
		"lng": "-51.15041528234100000"
	},
	"16": {
		"lat": "-30.01046379817800000",
		"lng": "-51.15120628234100000"
	},
	"17": {
		"lat": "-30.01044179817800000",
		"lng": "-51.15222828234100000"
	},
	"18": {
		"lat": "-30.01041679817800000",
		"lng": "-51.15331228234100000"
	},
	"19": {
		"lat": "-30.01039479817800000",
		"lng": "-51.15420128234100000"
	},
	"20": {
		"lat": "-30.01037379817800000",
		"lng": "-51.15524428234100000"
	},
	"21": {
		"lat": "-30.01037779817800000",
		"lng": "-51.15553928234100000"
	},
	"22": {
		"lat": "-30.01039679817800000",
		"lng": "-51.15628428234100000"
	},
	"23": {
		"lat": "-30.01040779817800000",
		"lng": "-51.15654928234100000"
	},
	"24": {
		"lat": "-30.01043479817800000",
		"lng": "-51.15718928234100000"
	},
	"25": {
		"lat": "-30.01044979817800000",
		"lng": "-51.15756728234100000"
	},
	"26": {
		"lat": "-30.01049079817800000",
		"lng": "-51.15805628234100000"
	},
	"27": {
		"lat": "-30.01062979817800000",
		"lng": "-51.15932828234100000"
	},
	"28": {
		"lat": "-30.01063579817800000",
		"lng": "-51.15938428234100000"
	},
	"29": {
		"lat": "-30.01070979817800000",
		"lng": "-51.15999228234100000"
	},
	"30": {
		"lat": "-30.01077479817800000",
		"lng": "-51.16054328234100000"
	},
	"31": {
		"lat": "-30.01093279817800000",
		"lng": "-51.16180028234100000"
	},
	"32": {
		"lat": "-30.01098079817800000",
		"lng": "-51.16206428234100000"
	},
	"33": {
		"lat": "-30.01101879817800000",
		"lng": "-51.16227328234100000"
	},
	"34": {
		"lat": "-30.01125779817800000",
		"lng": "-51.16361428234100000"
	},
	"35": {
		"lat": "-30.01134379817800000",
		"lng": "-51.16412728234100000"
	},
	"36": {
		"lat": "-30.01148679817800000",
		"lng": "-51.16494928234100000"
	},
	"37": {
		"lat": "-30.01152579817800000",
		"lng": "-51.16517528234100000"
	},
	"38": {
		"lat": "-30.01168879817800000",
		"lng": "-51.16618428234100000"
	},
	"39": {
		"lat": "-30.01181979817800000",
		"lng": "-51.16703628234100000"
	},
	"40": {
		"lat": "-30.01178979817800000",
		"lng": "-51.16715528234100000"
	},
	"41": {
		"lat": "-30.01179779817800000",
		"lng": "-51.16747328234100000"
	},
	"42": {
		"lat": "-30.01181579817800000",
		"lng": "-51.16807828234100000"
	},
	"43": {
		"lat": "-30.01180679817800000",
		"lng": "-51.16836628234100000"
	},
	"44": {
		"lat": "-30.01177579817800000",
		"lng": "-51.16895628234100000"
	},
	"45": {
		"lat": "-30.01170479817800000",
		"lng": "-51.16977928234100000"
	},
	"46": {
		"lat": "-30.01180579817800000",
		"lng": "-51.16984628234100000"
	},
	"47": {
		"lat": "-30.01184279817800000",
		"lng": "-51.16989728234100000"
	},
	"48": {
		"lat": "-30.01185279817800000",
		"lng": "-51.16991128234100000"
	},
	"49": {
		"lat": "-30.01194579817800000",
		"lng": "-51.17023228234100000"
	},
	"50": {
		"lat": "-30.01195679817800000",
		"lng": "-51.16986828234100000"
	},
	"51": {
		"lat": "-30.01223579817800000",
		"lng": "-51.16988228234100000"
	},
	"52": {
		"lat": "-30.01265579817800000",
		"lng": "-51.16978728234100000"
	},
	"53": {
		"lat": "-30.01427879817800000",
		"lng": "-51.16944228234100000"
	},
	"54": {
		"lat": "-30.01453279817800000",
		"lng": "-51.16932828234100000"
	},
	"55": {
		"lat": "-30.01468579817800000",
		"lng": "-51.16923828234100000"
	},
	"56": {
		"lat": "-30.01482579817800000",
		"lng": "-51.16912128234100000"
	},
	"57": {
		"lat": "-30.01499379817800000",
		"lng": "-51.16892628234100000"
	},
	"58": {
		"lat": "-30.01519779817800000",
		"lng": "-51.16858828234100000"
	},
	"59": {
		"lat": "-30.01504079817800000",
		"lng": "-51.16850628234100000"
	},
	"60": {
		"lat": "-30.01477079817800000",
		"lng": "-51.16843728234100000"
	},
	"61": {
		"lat": "-30.01452279817800000",
		"lng": "-51.16843428234100000"
	},
	"62": {
		"lat": "-30.01424279817800000",
		"lng": "-51.16847628234100000"
	},
	"63": {
		"lat": "-30.01385979817800000",
		"lng": "-51.16856528234100000"
	},
	"64": {
		"lat": "-30.01379679817800000",
		"lng": "-51.16850228234100000"
	},
	"65": {
		"lat": "-30.01353779817800000",
		"lng": "-51.16770728234100000"
	},
	"66": {
		"lat": "-30.01353479817800000",
		"lng": "-51.16765128234100000"
	},
	"67": {
		"lat": "-30.01350979817800000",
		"lng": "-51.16704728234100000"
	},
	"68": {
		"lat": "-30.01354679817800000",
		"lng": "-51.16670828234100000"
	},
	"69": {
		"lat": "-30.01356879817800000",
		"lng": "-51.16663828234100000"
	},
	"70": {
		"lat": "-30.01358579817800000",
		"lng": "-51.16659628234100000"
	},
	"71": {
		"lat": "-30.01365679817800000",
		"lng": "-51.16610328234100000"
	},
	"72": {
		"lat": "-30.01364479817800000",
		"lng": "-51.16567228234100000"
	},
	"73": {
		"lat": "-30.01361079817800000",
		"lng": "-51.16549428234100000"
	},
	"74": {
		"lat": "-30.01353879817800000",
		"lng": "-51.16490228234100000"
	},
	"75": {
		"lat": "-30.01470279817800000",
		"lng": "-51.16474428234100000"
	},
	"76": {
		"lat": "-30.01500679817800000",
		"lng": "-51.16470428234100000"
	},
	"77": {
		"lat": "-30.01500279817800000",
		"lng": "-51.16459228234100000"
	},
	"78": {
		"lat": "-30.01503479817800000",
		"lng": "-51.16422228234100000"
	},
	"79": {
		"lat": "-30.01506279817800000",
		"lng": "-51.16408628234100000"
	},
	"80": {
		"lat": "-30.01532879817800000",
		"lng": "-51.16349828234100000"
	},
	"81": {
		"lat": "-30.01534079817800000",
		"lng": "-51.16341628234100000"
	},
	"82": {
		"lat": "-30.01524679817800000",
		"lng": "-51.16248128234100000"
	},
	"83": {
		"lat": "-30.01514279817800000",
		"lng": "-51.16151028234100000"
	},
	"84": {
		"lat": "-30.01504679817800000",
		"lng": "-51.16059528234100000"
	},
	"85": {
		"lat": "-30.01494679817800000",
		"lng": "-51.15941628234100000"
	},
	"86": {
		"lat": "-30.01519979817800000",
		"lng": "-51.15938028234100000"
	},
	"87": {
		"lat": "-30.01790479817800000",
		"lng": "-51.15903228234100000"
	},
	"88": {
		"lat": "-30.01860979817800000",
		"lng": "-51.15893828234100000"
	},
	"89": {
		"lat": "-30.01936079817800000",
		"lng": "-51.15883128234100000"
	},
	"90": {
		"lat": "-30.01941579817800000",
		"lng": "-51.15946328234100000"
	},
	"91": {
		"lat": "-30.01944079817800000",
		"lng": "-51.15975628234100000"
	},
	"92": {
		"lat": "-30.01954079817800000",
		"lng": "-51.16085528234100000"
	},
	"93": {
		"lat": "-30.01968879817800000",
		"lng": "-51.16093728234100000"
	},
	"94": {
		"lat": "-30.02033779817800000",
		"lng": "-51.16151828234100000"
	},
	"95": {
		"lat": "-30.02043879817800000",
		"lng": "-51.16282828234100000"
	},
	"96": {
		"lat": "-30.02051179817800000",
		"lng": "-51.16341028234100000"
	},
	"97": {
		"lat": "-30.02057279817800000",
		"lng": "-51.16393128234100000"
	},
	"98": {
		"lat": "-30.02101579817800000",
		"lng": "-51.16388228234100000"
	},
	"99": {
		"lat": "-30.02137279817800000",
		"lng": "-51.16381528234100000"
	},
	"100": {
		"lat": "-30.02241879817800000",
		"lng": "-51.16356328234100000"
	},
	"101": {
		"lat": "-30.02285479817800000",
		"lng": "-51.16349928234100000"
	},
	"102": {
		"lat": "-30.02329479817800000",
		"lng": "-51.16346028234100000"
	},
	"103": {
		"lat": "-30.02441779817800000",
		"lng": "-51.16342628234100000"
	},
	"104": {
		"lat": "-30.02804079817800000",
		"lng": "-51.16336028234100000"
	},
	"105": {
		"lat": "-30.02810079817800000",
		"lng": "-51.16462528234100000"
	},
	"106": {
		"lat": "-30.02815279817800000",
		"lng": "-51.16586528234100000"
	},
	"107": {
		"lat": "-30.02817379817800000",
		"lng": "-51.16673728234100000"
	},
	"108": {
		"lat": "-30.02819079817800000",
		"lng": "-51.16741928234100000"
	},
	"109": {
		"lat": "-30.02822479817800000",
		"lng": "-51.16882328234100000"
	},
	"110": {
		"lat": "-30.02823379817800000",
		"lng": "-51.16969528234100000"
	},
	"111": {
		"lat": "-30.02814979817800000",
		"lng": "-51.17041428234100000"
	},
	"112": {
		"lat": "-30.02811179817800000",
		"lng": "-51.17091928234100000"
	},
	"113": {
		"lat": "-30.02798279817800000",
		"lng": "-51.17136428234100000"
	},
	"114": {
		"lat": "-30.02776379817800000",
		"lng": "-51.17196628234100000"
	},
	"115": {
		"lat": "-30.02764879817800000",
		"lng": "-51.17223228234100000"
	},
	"116": {
		"lat": "-30.02751079817800000",
		"lng": "-51.17295828234100000"
	},
	"117": {
		"lat": "-30.02750279817800000",
		"lng": "-51.17363028234100000"
	},
	"118": {
		"lat": "-30.02763279817800000",
		"lng": "-51.17441128234100000"
	},
	"119": {
		"lat": "-30.02844479817800000",
		"lng": "-51.17726628234100000"
	},
	"120": {
		"lat": "-30.02867979817800000",
		"lng": "-51.17808328234100000"
	},
	"121": {
		"lat": "-30.02897679817800000",
		"lng": "-51.17911428234100000"
	},
	"122": {
		"lat": "-30.02907279817800000",
		"lng": "-51.17944628234100000"
	},
	"123": {
		"lat": "-30.02930279817800000",
		"lng": "-51.18027428234100000"
	},
	"124": {
		"lat": "-30.02932979817800000",
		"lng": "-51.18038228234100000"
	},
	"125": {
		"lat": "-30.02947879817800000",
		"lng": "-51.18092028234100000"
	},
	"126": {
		"lat": "-30.02974679817800000",
		"lng": "-51.18185428234100000"
	},
	"127": {
		"lat": "-30.02984579817800000",
		"lng": "-51.18217528234100000"
	},
	"128": {
		"lat": "-30.02999879817800000",
		"lng": "-51.18247528234100000"
	},
	"129": {
		"lat": "-30.03010079817800000",
		"lng": "-51.18263128234100000"
	},
	"130": {
		"lat": "-30.03016879817800000",
		"lng": "-51.18273628234100000"
	},
	"131": {
		"lat": "-30.03041079817800000",
		"lng": "-51.18301628234100000"
	},
	"132": {
		"lat": "-30.03075479817800000",
		"lng": "-51.18329828234100000"
	},
	"133": {
		"lat": "-30.03100679817800000",
		"lng": "-51.18344528234100000"
	},
	"134": {
		"lat": "-30.03170079817800000",
		"lng": "-51.18379628234100000"
	},
	"135": {
		"lat": "-30.03237679817800000",
		"lng": "-51.18413528234100000"
	},
	"136": {
		"lat": "-30.03305779817800000",
		"lng": "-51.18447728234100000"
	},
	"137": {
		"lat": "-30.03437679817800000",
		"lng": "-51.18513728234100000"
	},
	"138": {
		"lat": "-30.03461079817800000",
		"lng": "-51.18525028234100000"
	},
	"139": {
		"lat": "-30.03532379817800000",
		"lng": "-51.18560728234100000"
	},
	"140": {
		"lat": "-30.03530979817800000",
		"lng": "-51.18564528234100000"
	},
	"141": {
		"lat": "-30.03532779817800000",
		"lng": "-51.18569028234100000"
	},
	"142": {
		"lat": "-30.03536379817800000",
		"lng": "-51.18573028234100000"
	},
	"143": {
		"lat": "-30.03547179817800000",
		"lng": "-51.18570828234100000"
	},
	"144": {
		"lat": "-30.03741279817800000",
		"lng": "-51.18765128234100000"
	},
	"145": {
		"lat": "-30.03748379817800000",
		"lng": "-51.18776228234100000"
	},
	"146": {
		"lat": "-30.03750279817800000",
		"lng": "-51.18779928234100000"
	},
	"147": {
		"lat": "-30.03804179817800000",
		"lng": "-51.18885928234100000"
	},
	"148": {
		"lat": "-30.03827179817800000",
		"lng": "-51.18944728234100000"
	},
	"149": {
		"lat": "-30.03840979817800000",
		"lng": "-51.19008128234100000"
	},
	"150": {
		"lat": "-30.03843579817800000",
		"lng": "-51.19031328234100000"
	},
	"151": {
		"lat": "-30.03846179817800000",
		"lng": "-51.19097528234100000"
	},
	"152": {
		"lat": "-30.03848379817800000",
		"lng": "-51.19194828234100000"
	},
	"153": {
		"lat": "-30.03857079817800000",
		"lng": "-51.19315128234100000"
	},
	"154": {
		"lat": "-30.03851479817800000",
		"lng": "-51.19449428234100000"
	},
	"155": {
		"lat": "-30.03867979817800000",
		"lng": "-51.19542828234100000"
	},
	"156": {
		"lat": "-30.03894479817800000",
		"lng": "-51.19589728234100000"
	},
	"157": {
		"lat": "-30.03967779817800000",
		"lng": "-51.19721028234100000"
	},
	"158": {
		"lat": "-30.03983079817800000",
		"lng": "-51.19747828234100000"
	},
	"159": {
		"lat": "-30.03989679817800000",
		"lng": "-51.19778628234100000"
	},
	"160": {
		"lat": "-30.03992079817800000",
		"lng": "-51.19797528234100000"
	},
	"161": {
		"lat": "-30.03971279817800000",
		"lng": "-51.19865828234100000"
	},
	"162": {
		"lat": "-30.03968879817800000",
		"lng": "-51.19873328234100000"
	},
	"163": {
		"lat": "-30.03941879817800000",
		"lng": "-51.19958828234100000"
	},
	"164": {
		"lat": "-30.03934679817800000",
		"lng": "-51.19983928234100000"
	},
	"165": {
		"lat": "-30.03925179817800000",
		"lng": "-51.20026728234100000"
	},
	"166": {
		"lat": "-30.03908379817800000",
		"lng": "-51.20109528234100000"
	},
	"167": {
		"lat": "-30.03898879817800000",
		"lng": "-51.20153228234100000"
	},
	"168": {
		"lat": "-30.03888379817800000",
		"lng": "-51.20177328234100000"
	},
	"169": {
		"lat": "-30.03868179817800000",
		"lng": "-51.20220028234100000"
	},
	"170": {
		"lat": "-30.03833379817800000",
		"lng": "-51.20293728234100000"
	},
	"171": {
		"lat": "-30.03823279817800000",
		"lng": "-51.20318428234100000"
	},
	"172": {
		"lat": "-30.03799379817800000",
		"lng": "-51.20369328234100000"
	},
	"173": {
		"lat": "-30.03789279817800000",
		"lng": "-51.20391028234100000"
	},
	"174": {
		"lat": "-30.03779679817800000",
		"lng": "-51.20411828234100000"
	},
	"175": {
		"lat": "-30.03773579817800000",
		"lng": "-51.20425028234100000"
	},
	"176": {
		"lat": "-30.03761279817800000",
		"lng": "-51.20451128234100000"
	},
	"177": {
		"lat": "-30.03753379817800000",
		"lng": "-51.20468528234100000"
	},
	"178": {
		"lat": "-30.03746779817800000",
		"lng": "-51.20495628234100000"
	},
	"179": {
		"lat": "-30.03735579817800000",
		"lng": "-51.20574628234100000"
	},
	"180": {
		"lat": "-30.03724279817800000",
		"lng": "-51.20655228234100000"
	},
	"181": {
		"lat": "-30.03712979817800000",
		"lng": "-51.20731128234100000"
	},
	"182": {
		"lat": "-30.03696579817800000",
		"lng": "-51.20834128234100000"
	},
	"183": {
		"lat": "-30.03692379817800000",
		"lng": "-51.20860428234100000"
	},
	"184": {
		"lat": "-30.03685779817800000",
		"lng": "-51.20882728234100000"
	},
	"185": {
		"lat": "-30.03683279817800000",
		"lng": "-51.20891128234100000"
	},
	"186": {
		"lat": "-30.03674979817800000",
		"lng": "-51.20907128234100000"
	},
	"187": {
		"lat": "-30.03639679817800000",
		"lng": "-51.20974428234100000"
	},
	"188": {
		"lat": "-30.03618979817800000",
		"lng": "-51.21013928234100000"
	},
	"189": {
		"lat": "-30.03587679817800000",
		"lng": "-51.21075328234100000"
	},
	"190": {
		"lat": "-30.03580279817800000",
		"lng": "-51.21089628234100000"
	},
	"191": {
		"lat": "-30.03570879817800000",
		"lng": "-51.21108328234100000"
	},
	"192": {
		"lat": "-30.03546579817800000",
		"lng": "-51.21154428234100000"
	},
	"193": {
		"lat": "-30.03473079817800000",
		"lng": "-51.21297028234100000"
	},
	"194": {
		"lat": "-30.03424579817800000",
		"lng": "-51.21389828234100000"
	},
	"195": {
		"lat": "-30.03387679817800000",
		"lng": "-51.21460728234100000"
	},
	"196": {
		"lat": "-30.03345279817800000",
		"lng": "-51.21541328234100000"
	},
	"197": {
		"lat": "-30.03342979817800000",
		"lng": "-51.21545428234100000"
	},
	"198": {
		"lat": "-30.03326479817800000",
		"lng": "-51.21621128234100000"
	},
	"199": {
		"lat": "-30.03301879817800000",
		"lng": "-51.21730028234100000"
	},
	"200": {
		"lat": "-30.03286879817800000",
		"lng": "-51.21799528234100000"
	},
	"201": {
		"lat": "-30.03257179817800000",
		"lng": "-51.21930828234100000"
	},
	"202": {
		"lat": "-30.03238079817800000",
		"lng": "-51.22018328234100000"
	},
	"203": {
		"lat": "-30.03228979817800000",
		"lng": "-51.22052228234100000"
	},
	"204": {
		"lat": "-30.03390379817800000",
		"lng": "-51.22158728234100000"
	},
	"205": {
		"lat": "-30.03395979817800000",
		"lng": "-51.22160528234100000"
	},
	"206": {
		"lat": "-30.03401579817800000",
		"lng": "-51.22159828234100000"
	},
	"207": {
		"lat": "-30.03410279817800000",
		"lng": "-51.22154228234100000"
	},
	"208": {
		"lat": "-30.03413279817800000",
		"lng": "-51.22149228234100000"
	},
	"209": {
		"lat": "-30.03426879817800000",
		"lng": "-51.22133928234100000"
	},
	"210": {
		"lat": "-30.03436979817800000",
		"lng": "-51.22127728234100000"
	},
	"211": {
		"lat": "-30.03449379817800000",
		"lng": "-51.22126528234100000"
	},
	"212": {
		"lat": "-30.03464479817800000",
		"lng": "-51.22127628234100000"
	},
	"213": {
		"lat": "-30.03470079817800000",
		"lng": "-51.22129928234100000"
	},
	"214": {
		"lat": "-30.03473779817800000",
		"lng": "-51.22131928234100000"
	},
	"215": {
		"lat": "-30.03474579817800000",
		"lng": "-51.22133428234100000"
	},
	"216": {
		"lat": "-30.03487379817800000",
		"lng": "-51.22162828234100000"
	},
	"217": {
		"lat": "-30.03495679817800000",
		"lng": "-51.22202128234100000"
	},
	"218": {
		"lat": "-30.03498879817800000",
		"lng": "-51.22233128234100000"
	},
	"219": {
		"lat": "-30.03502679817800000",
		"lng": "-51.22270928234100000"
	},
	"220": {
		"lat": "-30.03509079817800000",
		"lng": "-51.22335528234100000"
	},
	"221": {
		"lat": "-30.03513779817800000",
		"lng": "-51.22361028234100000"
	},
	"222": {
		"lat": "-30.03523679817800000",
		"lng": "-51.22394728234100000"
	},
	"223": {
		"lat": "-30.03537079817800000",
		"lng": "-51.22421528234100000"
	},
	"224": {
		"lat": "-30.03547379817800000",
		"lng": "-51.22437328234100000"
	},
	"225": {
		"lat": "-30.03580479817800000",
		"lng": "-51.22472828234100000"
	},
	"226": {
		"lat": "-30.03721179817800000",
		"lng": "-51.22602828234100000"
	},
	"227": {
		"lat": "-30.03763879817800000",
		"lng": "-51.22642628234100000"
	},
	"228": {
		"lat": "-30.03812779817800000",
		"lng": "-51.22688228234100000"
	},
	"229": {
		"lat": "-30.03827979817800000",
		"lng": "-51.22706228234100000"
	},
	"230": {
		"lat": "-30.03835279817800000",
		"lng": "-51.22717528234100000"
	},
	"231": {
		"lat": "-30.03850579817800000",
		"lng": "-51.22744328234100000"
	},
	"232": {
		"lat": "-30.03857779817800000",
		"lng": "-51.22762328234100000"
	},
	"233": {
		"lat": "-30.03864479817800000",
		"lng": "-51.22786428234100000"
	},
	"234": {
		"lat": "-30.03870679817800000",
		"lng": "-51.22822528234100000"
	},
	"235": {
		"lat": "-30.03870579817800000",
		"lng": "-51.22839128234100000"
	},
	"236": {
		"lat": "-30.03869179817800000",
		"lng": "-51.22870528234100000"
	},
	"237": {
		"lat": "-30.03860179817800000",
		"lng": "-51.22908728234100000"
	},
	"238": {
		"lat": "-30.03851179817800000",
		"lng": "-51.22932028234100000"
	},
	"239": {
		"lat": "-30.03837879817800000",
		"lng": "-51.22957828234100000"
	},
	"240": {
		"lat": "-30.03828779817800000",
		"lng": "-51.22970728234100000"
	},
	"241": {
		"lat": "-30.03803879817800000",
		"lng": "-51.22976528234100000"
	},
	"242": {
		"lat": "-30.03790579817800000",
		"lng": "-51.22976228234100000"
	},
	"243": {
		"lat": "-30.03772679817800000",
		"lng": "-51.22969828234100000"
	},
	"244": {
		"lat": "-30.03760779817800000",
		"lng": "-51.22956628234100000"
	},
	"245": {
		"lat": "-30.03757279817800000",
		"lng": "-51.22946828234100000"
	},
	"246": {
		"lat": "-30.03754379817800000",
		"lng": "-51.22939028234100000"
	},
	"247": {
		"lat": "-30.03754679817800000",
		"lng": "-51.22917128234100000"
	},
	"248": {
		"lat": "-30.03760679817800000",
		"lng": "-51.22859528234100000"
	},
	"249": {
		"lat": "-30.03766679817800000",
		"lng": "-51.22843828234100000"
	},
	"250": {
		"lat": "-30.03782479817800000",
		"lng": "-51.22826828234100000"
	},
	"251": {
		"lat": "-30.03870579817800000",
		"lng": "-51.22839128234100000"
	},
	"252": {
		"lat": "-30.03977879817800000",
		"lng": "-51.22854128234100000"
	},
	"253": {
		"lat": "-30.03997379817800000",
		"lng": "-51.22856028234100000"
	},
	"254": {
		"lat": "-30.04028579817800000",
		"lng": "-51.22858028234100000"
	},
	"255": {
		"lat": "-30.04032379817800000",
		"lng": "-51.22858228234100000"
	},
	"256": {
		"lat": "-30.04077579817800000",
		"lng": "-51.22860528234100000"
	},
	"257": {
		"lat": "-30.04104879817800000",
		"lng": "-51.22861328234100000"
	},
	"258": {
		"lat": "-30.04184879817800000",
		"lng": "-51.22869728234100000"
	},
	"259": {
		"lat": "-30.04301979817800000",
		"lng": "-51.22884428234100000"
	},
	"260": {
		"lat": "-30.04410979817800000",
		"lng": "-51.22897028234100000"
	},
	"261": {
		"lat": "-30.04433979817800000",
		"lng": "-51.22899828234100000"
	},
	"262": {
		"lat": "-30.04454279817800000",
		"lng": "-51.22902028234100000"
	},
	"263": {
		"lat": "-30.04565479817800000",
		"lng": "-51.22915528234100000"
	},
	"264": {
		"lat": "-30.04578379817800000",
		"lng": "-51.22917128234100000"
	},
	"265": {
		"lat": "-30.04610379817800000",
		"lng": "-51.22920828234100000"
	},
	"266": {
		"lat": "-30.04746379817800000",
		"lng": "-51.22936628234100000"
	},
	"267": {
		"lat": "-30.04759079817800000",
		"lng": "-51.22938028234100000"
	},
	"268": {
		"lat": "-30.04766879817800000",
		"lng": "-51.22938928234100000"
	},
	"269": {
		"lat": "-30.04776879817800000",
		"lng": "-51.22940028234100000"
	},
	"270": {
		"lat": "-30.04793279817800000",
		"lng": "-51.22941828234100000"
	},
	"271": {
		"lat": "-30.05096379817800000",
		"lng": "-51.22976828234100000"
	},
	"272": {
		"lat": "-30.05200879817800000",
		"lng": "-51.22988928234100000"
	},
	"273": {
		"lat": "-30.05477279817800000",
		"lng": "-51.23021428234100000"
	},
	"274": {
		"lat": "-30.05491279817800000",
		"lng": "-51.22885928234100000"
	},
	"275": {
		"lat": "-30.05388179817800000",
		"lng": "-51.22867528234100000"
	},
	"276": {
		"lat": "-30.05314979817800000",
		"lng": "-51.22854428234100000"
	},
	"277": {
		"lat": "-30.05213479817800000",
		"lng": "-51.22836428234100000"
	}
}

